{"frames": {

"extremetree2.png":
{
	"frame": {"x":0,"y":0,"w":972,"h":720},
	"rotated": false,
	"trimmed": false,
	"spriteSourceSize": {"x":0,"y":0,"w":972,"h":720},
	"sourceSize": {"w":972,"h":720},
	"pivot": {"x":0.5,"y":0.5}
},
"extremetree1.png":
{
	"frame": {"x":0,"y":722,"w":1796,"h":720},
	"rotated": false,
	"trimmed": false,
	"spriteSourceSize": {"x":0,"y":0,"w":1796,"h":720},
	"sourceSize": {"w":1796,"h":720},
	"pivot": {"x":0.5,"y":0.5}
},
"clouds2.png":
{
	"frame": {"x":0,"y":1444,"w":2048,"h":580},
	"rotated": false,
	"trimmed": false,
	"spriteSourceSize": {"x":0,"y":0,"w":2048,"h":580},
	"sourceSize": {"w":2048,"h":580},
	"pivot": {"x":0.5,"y":0.5}
}},
"meta": {
	"app": "http://www.codeandweb.com/texturepacker",
	"version": "1.0",
	"image": "background2.png",
	"format": "RGBA8888",
	"size": {"w":2048,"h":2024},
	"scale": "1",
	"smartupdate": "$TexturePacker:SmartUpdate:2170991d6134a32e5fcc1f4a07bb8832:49f557196e347d2bfe23ad3dcffe828f:c11f6f73410053bb41ba2fc5cfceb33f$"
}
}
