{"frames": {

"obstacle-ramp.png":
{
	"frame": {"x":0,"y":0,"w":462,"h":217},
	"rotated": false,
	"trimmed": false,
	"spriteSourceSize": {"x":0,"y":0,"w":462,"h":217},
	"sourceSize": {"w":462,"h":217},
	"pivot": {"x":0.5,"y":0.5}
},
"obstacle-rocks.png":
{
	"frame": {"x":0,"y":219,"w":492,"h":241},
	"rotated": false,
	"trimmed": false,
	"spriteSourceSize": {"x":0,"y":0,"w":492,"h":241},
	"sourceSize": {"w":492,"h":241},
	"pivot": {"x":0.262195,"y":0.751037}
},
"obstacle-rocks2.png":
{
	"frame": {"x":0,"y":462,"w":436,"h":179},
	"rotated": false,
	"trimmed": false,
	"spriteSourceSize": {"x":0,"y":0,"w":436,"h":179},
	"sourceSize": {"w":436,"h":179},
	"pivot": {"x":0.5,"y":0.5}
},
"obstacle-rocks3.png":
{
	"frame": {"x":0,"y":643,"w":403,"h":202},
	"rotated": false,
	"trimmed": false,
	"spriteSourceSize": {"x":0,"y":0,"w":403,"h":202},
	"sourceSize": {"w":403,"h":202},
	"pivot": {"x":0.5,"y":0.5}
},
"obstacle-rocks4.png":
{
	"frame": {"x":0,"y":847,"w":494,"h":168},
	"rotated": false,
	"trimmed": false,
	"spriteSourceSize": {"x":0,"y":0,"w":494,"h":168},
	"sourceSize": {"w":494,"h":168},
	"pivot": {"x":0.5,"y":0.5}
},
"obstacle-rocks5.png":
{
	"frame": {"x":0,"y":1017,"w":362,"h":209},
	"rotated": false,
	"trimmed": false,
	"spriteSourceSize": {"x":0,"y":0,"w":362,"h":209},
	"sourceSize": {"w":362,"h":209},
	"pivot": {"x":0.5,"y":0.5}
},
"powerup_boost.png":
{
	"frame": {"x":364,"y":1017,"w":133,"h":150},
	"rotated": false,
	"trimmed": false,
	"spriteSourceSize": {"x":0,"y":0,"w":133,"h":150},
	"sourceSize": {"w":133,"h":150},
	"pivot": {"x":0.5,"y":0.5}
},
"powerup_boost_0000.png":
{
	"frame": {"x":0,"y":1228,"w":133,"h":150},
	"rotated": false,
	"trimmed": false,
	"spriteSourceSize": {"x":0,"y":0,"w":133,"h":150},
	"sourceSize": {"w":133,"h":150},
	"pivot": {"x":0.5,"y":0.5}
},
"powerup_boost_0001.png":
{
	"frame": {"x":135,"y":1228,"w":133,"h":150},
	"rotated": false,
	"trimmed": false,
	"spriteSourceSize": {"x":0,"y":0,"w":133,"h":150},
	"sourceSize": {"w":133,"h":150},
	"pivot": {"x":0.5,"y":0.5}
},
"powerup_boost_0002.png":
{
	"frame": {"x":270,"y":1228,"w":133,"h":150},
	"rotated": false,
	"trimmed": false,
	"spriteSourceSize": {"x":0,"y":0,"w":133,"h":150},
	"sourceSize": {"w":133,"h":150},
	"pivot": {"x":0.5,"y":0.5}
},
"powerup_boost_0003.png":
{
	"frame": {"x":0,"y":1380,"w":133,"h":150},
	"rotated": false,
	"trimmed": false,
	"spriteSourceSize": {"x":0,"y":0,"w":133,"h":150},
	"sourceSize": {"w":133,"h":150},
	"pivot": {"x":0.5,"y":0.5}
},
"powerup_boost_0004.png":
{
	"frame": {"x":135,"y":1380,"w":133,"h":150},
	"rotated": false,
	"trimmed": false,
	"spriteSourceSize": {"x":0,"y":0,"w":133,"h":150},
	"sourceSize": {"w":133,"h":150},
	"pivot": {"x":0.5,"y":0.5}
},
"powerup_boost_0005.png":
{
	"frame": {"x":270,"y":1380,"w":133,"h":150},
	"rotated": false,
	"trimmed": false,
	"spriteSourceSize": {"x":0,"y":0,"w":133,"h":150},
	"sourceSize": {"w":133,"h":150},
	"pivot": {"x":0.5,"y":0.5}
},
"powerup_boost_0006.png":
{
	"frame": {"x":0,"y":1532,"w":133,"h":150},
	"rotated": false,
	"trimmed": false,
	"spriteSourceSize": {"x":0,"y":0,"w":133,"h":150},
	"sourceSize": {"w":133,"h":150},
	"pivot": {"x":0.5,"y":0.5}
},
"powerup_repair.png":
{
	"frame": {"x":135,"y":1532,"w":140,"h":127},
	"rotated": false,
	"trimmed": false,
	"spriteSourceSize": {"x":0,"y":0,"w":140,"h":127},
	"sourceSize": {"w":140,"h":127},
	"pivot": {"x":0.5,"y":0.5}
},
"powerup_repair_0000.png":
{
	"frame": {"x":277,"y":1532,"w":140,"h":127},
	"rotated": false,
	"trimmed": false,
	"spriteSourceSize": {"x":0,"y":0,"w":140,"h":127},
	"sourceSize": {"w":140,"h":127},
	"pivot": {"x":0.5,"y":0.5}
},
"powerup_repair_0001.png":
{
	"frame": {"x":0,"y":1684,"w":140,"h":127},
	"rotated": false,
	"trimmed": false,
	"spriteSourceSize": {"x":0,"y":0,"w":140,"h":127},
	"sourceSize": {"w":140,"h":127},
	"pivot": {"x":0.5,"y":0.5}
},
"powerup_repair_0002.png":
{
	"frame": {"x":142,"y":1684,"w":140,"h":127},
	"rotated": false,
	"trimmed": false,
	"spriteSourceSize": {"x":0,"y":0,"w":140,"h":127},
	"sourceSize": {"w":140,"h":127},
	"pivot": {"x":0.5,"y":0.5}
},
"powerup_repair_0003.png":
{
	"frame": {"x":284,"y":1684,"w":140,"h":127},
	"rotated": false,
	"trimmed": false,
	"spriteSourceSize": {"x":0,"y":0,"w":140,"h":127},
	"sourceSize": {"w":140,"h":127},
	"pivot": {"x":0.5,"y":0.5}
},
"powerup_repair_0004.png":
{
	"frame": {"x":0,"y":1813,"w":140,"h":127},
	"rotated": false,
	"trimmed": false,
	"spriteSourceSize": {"x":0,"y":0,"w":140,"h":127},
	"sourceSize": {"w":140,"h":127},
	"pivot": {"x":0.5,"y":0.5}
},
"powerup_repair_0005.png":
{
	"frame": {"x":142,"y":1813,"w":140,"h":127},
	"rotated": false,
	"trimmed": false,
	"spriteSourceSize": {"x":0,"y":0,"w":140,"h":127},
	"sourceSize": {"w":140,"h":127},
	"pivot": {"x":0.5,"y":0.5}
},
"powerup_repair_0006.png":
{
	"frame": {"x":284,"y":1813,"w":140,"h":127},
	"rotated": false,
	"trimmed": false,
	"spriteSourceSize": {"x":0,"y":0,"w":140,"h":127},
	"sourceSize": {"w":140,"h":127},
	"pivot": {"x":0.5,"y":0.5}
},
"powerup_shadow.png":
{
	"frame": {"x":426,"y":1813,"w":79,"h":29},
	"rotated": false,
	"trimmed": false,
	"spriteSourceSize": {"x":0,"y":0,"w":79,"h":29},
	"sourceSize": {"w":79,"h":29},
	"pivot": {"x":0.5,"y":0.5}
}},
"meta": {
	"app": "http://www.codeandweb.com/texturepacker",
	"version": "1.0",
	"image": "entities2.png",
	"format": "RGBA8888",
	"size": {"w":505,"h":1940},
	"scale": "1",
	"smartupdate": "$TexturePacker:SmartUpdate:fca426bfd6b995ba52738e84c8bd4f08:e8a06b6f306b4a3e53484f7b1852a0cb:df51d1ed69fafe549eda4647a469be4c$"
}
}
