{"frames": {

"vignette-constant.png":
{
	"frame": {"x":0,"y":0,"w":1280,"h":591},
	"rotated": false,
	"trimmed": false,
	"spriteSourceSize": {"x":0,"y":0,"w":1280,"h":591},
	"sourceSize": {"w":1280,"h":591},
	"pivot": {"x":0.5,"y":0.5}
},
"vignette-doom.png":
{
	"frame": {"x":0,"y":593,"w":2048,"h":643},
	"rotated": false,
	"trimmed": false,
	"spriteSourceSize": {"x":0,"y":0,"w":2048,"h":643},
	"sourceSize": {"w":2048,"h":643},
	"pivot": {"x":0.5,"y":0.5}
}},
"meta": {
	"app": "http://www.codeandweb.com/texturepacker",
	"version": "1.0",
	"image": "vignette.png",
	"format": "RGBA8888",
	"size": {"w":2048,"h":1236},
	"scale": "1",
	"smartupdate": "$TexturePacker:SmartUpdate:877ad78308d61c8f4905eecdf53adf2e:247a4725daf139d2ef9c828e8204cffe:2bc0e0bee5e2969744bcaa7874cfdfd3$"
}
}
