{"frames": {

"base.png":
{
	"frame": {"x":0,"y":0,"w":128,"h":128},
	"rotated": false,
	"trimmed": false,
	"spriteSourceSize": {"x":0,"y":0,"w":128,"h":128},
	"sourceSize": {"w":128,"h":128},
	"pivot": {"x":0.5,"y":0.5}
},
"grass-path.png":
{
	"frame": {"x":0,"y":130,"w":2048,"h":294},
	"rotated": false,
	"trimmed": false,
	"spriteSourceSize": {"x":0,"y":0,"w":2048,"h":294},
	"sourceSize": {"w":2048,"h":294},
	"pivot": {"x":0.5,"y":0.5}
},
"sand-path.png":
{
	"frame": {"x":0,"y":426,"w":2048,"h":295},
	"rotated": false,
	"trimmed": false,
	"spriteSourceSize": {"x":0,"y":0,"w":2048,"h":295},
	"sourceSize": {"w":2048,"h":295},
	"pivot": {"x":0.5,"y":0.5}
},
"top-path.png":
{
	"frame": {"x":0,"y":723,"w":2048,"h":434},
	"rotated": false,
	"trimmed": false,
	"spriteSourceSize": {"x":0,"y":0,"w":2048,"h":434},
	"sourceSize": {"w":2048,"h":434},
	"pivot": {"x":0.5,"y":0.5}
}},
"meta": {
	"app": "http://www.codeandweb.com/texturepacker",
	"version": "1.0",
	"image": "world.png",
	"format": "RGBA8888",
	"size": {"w":2048,"h":1157},
	"scale": "1",
	"smartupdate": "$TexturePacker:SmartUpdate:9fee30e14913cbbacd0c01e4412f27a4:8cff05fcf8c668db294c8f411ac76cdf:ab3b2bdf72ac48e8726e19fe12f70483$"
}
}
