{
  "width": 37120,
  "height": 1024,
  "gridSize": 32,
  "atlasKey": "world",
  "skirt": "base.png",
  "structures": [
    {
      "layer": 0,
      "points": [
        [
          0,
          128
        ],
        [
          1376,
          288
        ],
        [
          1856,
          320
        ]
      ],
      "textures": [
        "top-path.png"
      ]
    },
    {
      "layer": 0,
      "points": [
        [
          1856,
          320
        ],
        [
          2784,
          256
        ],
        [
          3712,
          320
        ]
      ],
      "textures": [
        "top-path.png"
      ]
    },
    {
      "layer": 0,
      "points": [
        [
          3712,
          320
        ],
        [
          4640,
          384
        ],
        [
          5568,
          320
        ]
      ],
      "textures": [
        "top-path.png"
      ]
    },
    {
      "layer": 0,
      "points": [
        [
          5568,
          320
        ],
        [
          6496,
          288
        ],
        [
          7424,
          320
        ]
      ],
      "textures": [
        "top-path.png"
      ]
    },
    {
      "layer": 0,
      "points": [
        [
          7424,
          320
        ],
        [
          9280,
          320
        ]
      ],
      "textures": [
        "top-path.png"
      ]
    },
    {
      "layer": 0,
      "points": [
        [
          9280,
          320
        ],
        [
          10208,
          352
        ],
        [
          11136,
          320
        ]
      ],
      "textures": [
        "top-path.png"
      ]
    },
    {
      "layer": 0,
      "points": [
        [
          11136,
          320
        ],
        [
          12992,
          320
        ]
      ],
      "textures": [
        "top-path.png"
      ]
    },
    {
      "layer": 0,
      "points": [
        [
          12992,
          320
        ],
        [
          13920,
          256
        ],
        [
          14848,
          320
        ]
      ],
      "textures": [
        "top-path.png"
      ]
    },
    {
      "layer": 0,
      "points": [
        [
          14848,
          320
        ],
        [
          15776,
          256
        ],
        [
          16704,
          320
        ]
      ],
      "textures": [
        "top-path.png"
      ]
    },
    {
      "layer": 0,
      "points": [
        [
          16704,
          320
        ],
        [
          17632,
          352
        ],
        [
          18560,
          320
        ]
      ],
      "textures": [
        "top-path.png"
      ]
    },
    {
      "layer": 0,
      "points": [
        [
          18560,
          320
        ],
        [
          19488,
          352
        ],
        [
          20416,
          320
        ]
      ],
      "textures": [
        "top-path.png"
      ]
    },
    {
      "layer": 0,
      "points": [
        [
          20416,
          320
        ],
        [
          21344,
          192
        ],
        [
          22272,
          320
        ]
      ],
      "textures": [
        "top-path.png"
      ]
    },
    {
      "layer": 0,
      "points": [
        [
          22272,
          320
        ],
        [
          24128,
          320
        ]
      ],
      "textures": [
        "top-path.png"
      ]
    },
    {
      "layer": 0,
      "points": [
        [
          24128,
          320
        ],
        [
          25056,
          384
        ],
        [
          25984,
          320
        ]
      ],
      "textures": [
        "top-path.png"
      ]
    },
    {
      "layer": 0,
      "points": [
        [
          25984,
          320
        ],
        [
          26912,
          288
        ],
        [
          27840,
          320
        ]
      ],
      "textures": [
        "top-path.png"
      ]
    },
    {
      "layer": 0,
      "points": [
        [
          27840,
          320
        ],
        [
          28768,
          224
        ],
        [
          29696,
          320
        ]
      ],
      "textures": [
        "top-path.png"
      ]
    },
    {
      "layer": 0,
      "points": [
        [
          29696,
          320
        ],
        [
          30624,
          256
        ],
        [
          31552,
          320
        ]
      ],
      "textures": [
        "top-path.png"
      ]
    },
    {
      "layer": 0,
      "points": [
        [
          31552,
          320
        ],
        [
          32480,
          384
        ],
        [
          33408,
          320
        ]
      ],
      "textures": [
        "top-path.png"
      ]
    },
    {
      "layer": 0,
      "points": [
        [
          33408,
          320
        ],
        [
          34336,
          224
        ],
        [
          35264,
          320
        ]
      ],
      "textures": [
        "top-path.png"
      ]
    },
    {
      "layer": 0,
      "points": [
        [
          35264,
          320
        ],
        [
          37120,
          320
        ]
      ],
      "textures": [
        "top-path.png"
      ]
    },
    {
      "layer": 1,
      "points": [
        [
          0,
          160
        ],
        [
          1376,
          320
        ],
        [
          1856,
          352
        ]
      ],
      "textures": [
        "sand-path.png"
      ]
    },
    {
      "layer": 1,
      "points": [
        [
          1856,
          352
        ],
        [
          2784,
          288
        ],
        [
          3712,
          352
        ]
      ],
      "textures": [
        "sand-path.png"
      ]
    },
    {
      "layer": 1,
      "points": [
        [
          3712,
          352
        ],
        [
          4640,
          416
        ],
        [
          5568,
          352
        ]
      ],
      "textures": [
        "sand-path.png"
      ]
    },
    {
      "layer": 1,
      "points": [
        [
          5568,
          352
        ],
        [
          6496,
          320
        ],
        [
          7424,
          352
        ]
      ],
      "textures": [
        "sand-path.png"
      ]
    },
    {
      "layer": 1,
      "points": [
        [
          7424,
          352
        ],
        [
          9280,
          352
        ]
      ],
      "textures": [
        "sand-path.png"
      ]
    },
    {
      "layer": 1,
      "points": [
        [
          9280,
          352
        ],
        [
          10208,
          384
        ],
        [
          11136,
          352
        ]
      ],
      "textures": [
        "sand-path.png"
      ]
    },
    {
      "layer": 1,
      "points": [
        [
          11136,
          352
        ],
        [
          11600,
          352
        ],
        [
          12128,
          352
        ],
        [
          12656,
          352
        ],
        [
          12992,
          352
        ]
      ],
      "textures": [
        "sand-path.png"
      ]
    },
    {
      "layer": 1,
      "points": [
        [
          12992,
          352
        ],
        [
          13920,
          288
        ],
        [
          14848,
          352
        ]
      ],
      "textures": [
        "sand-path.png"
      ]
    },
    {
      "layer": 1,
      "points": [
        [
          14848,
          352
        ],
        [
          15776,
          288
        ],
        [
          16704,
          352
        ]
      ],
      "textures": [
        "sand-path.png"
      ]
    },
    {
      "layer": 1,
      "points": [
        [
          16704,
          352
        ],
        [
          17632,
          384
        ],
        [
          18560,
          352
        ]
      ],
      "textures": [
        "sand-path.png"
      ]
    },
    {
      "layer": 1,
      "points": [
        [
          18560,
          352
        ],
        [
          19488,
          384
        ],
        [
          20416,
          352
        ]
      ],
      "textures": [
        "sand-path.png"
      ]
    },
    {
      "layer": 1,
      "points": [
        [
          20416,
          352
        ],
        [
          21344,
          224
        ],
        [
          22272,
          352
        ]
      ],
      "textures": [
        "sand-path.png"
      ]
    },
    {
      "layer": 1,
      "points": [
        [
          22272,
          352
        ],
        [
          24128,
          352
        ]
      ],
      "textures": [
        "sand-path.png"
      ]
    },
    {
      "layer": 1,
      "points": [
        [
          24128,
          352
        ],
        [
          25056,
          416
        ],
        [
          25984,
          352
        ]
      ],
      "textures": [
        "sand-path.png"
      ]
    },
    {
      "layer": 1,
      "points": [
        [
          25984,
          352
        ],
        [
          26912,
          320
        ],
        [
          27840,
          352
        ]
      ],
      "textures": [
        "sand-path.png"
      ]
    },
    {
      "layer": 1,
      "points": [
        [
          27840,
          352
        ],
        [
          28768,
          256
        ],
        [
          29696,
          352
        ]
      ],
      "textures": [
        "sand-path.png"
      ]
    },
    {
      "layer": 1,
      "points": [
        [
          29696,
          352
        ],
        [
          30624,
          288
        ],
        [
          31552,
          352
        ]
      ],
      "textures": [
        "sand-path.png"
      ]
    },
    {
      "layer": 1,
      "points": [
        [
          31552,
          352
        ],
        [
          32480,
          416
        ],
        [
          33408,
          352
        ]
      ],
      "textures": [
        "sand-path.png"
      ]
    },
    {
      "layer": 1,
      "points": [
        [
          33408,
          352
        ],
        [
          34336,
          256
        ],
        [
          35264,
          352
        ]
      ],
      "textures": [
        "sand-path.png"
      ]
    },
    {
      "layer": 1,
      "points": [
        [
          35264,
          352
        ],
        [
          37120,
          352
        ]
      ],
      "textures": [
        "sand-path.png"
      ]
    },
    {
      "layer": 2,
      "points": [
        [
          0,
          224
        ],
        [
          1376,
          384
        ],
        [
          1856,
          416
        ]
      ],
      "textures": [
        "grass-path.png"
      ]
    },
    {
      "layer": 2,
      "points": [
        [
          1856,
          416
        ],
        [
          2784,
          352
        ],
        [
          3712,
          416
        ]
      ],
      "textures": [
        "grass-path.png"
      ]
    },
    {
      "layer": 2,
      "points": [
        [
          3712,
          416
        ],
        [
          4640,
          480
        ],
        [
          5568,
          416
        ]
      ],
      "textures": [
        "grass-path.png"
      ]
    },
    {
      "layer": 2,
      "points": [
        [
          5568,
          416
        ],
        [
          6496,
          384
        ],
        [
          7424,
          416
        ]
      ],
      "textures": [
        "grass-path.png"
      ]
    },
    {
      "layer": 2,
      "points": [
        [
          7424,
          416
        ],
        [
          9280,
          416
        ]
      ],
      "textures": [
        "grass-path.png"
      ]
    },
    {
      "layer": 2,
      "points": [
        [
          9280,
          416
        ],
        [
          10208,
          448
        ],
        [
          11136,
          416
        ]
      ],
      "textures": [
        "grass-path.png"
      ]
    },
    {
      "layer": 2,
      "points": [
        [
          11136,
          416
        ],
        [
          12992,
          416
        ]
      ],
      "textures": [
        "grass-path.png"
      ]
    },
    {
      "layer": 2,
      "points": [
        [
          12992,
          416
        ],
        [
          13920,
          352
        ],
        [
          14848,
          416
        ]
      ],
      "textures": [
        "grass-path.png"
      ]
    },
    {
      "layer": 2,
      "points": [
        [
          14848,
          416
        ],
        [
          15776,
          352
        ],
        [
          16704,
          416
        ]
      ],
      "textures": [
        "grass-path.png"
      ]
    },
    {
      "layer": 2,
      "points": [
        [
          16704,
          416
        ],
        [
          17632,
          448
        ],
        [
          18560,
          416
        ]
      ],
      "textures": [
        "grass-path.png"
      ]
    },
    {
      "layer": 2,
      "points": [
        [
          18560,
          416
        ],
        [
          19488,
          448
        ],
        [
          20416,
          416
        ]
      ],
      "textures": [
        "grass-path.png"
      ]
    },
    {
      "layer": 2,
      "points": [
        [
          20416,
          416
        ],
        [
          21344,
          288
        ],
        [
          22272,
          416
        ]
      ],
      "textures": [
        "grass-path.png"
      ]
    },
    {
      "layer": 2,
      "points": [
        [
          22272,
          416
        ],
        [
          24128,
          416
        ]
      ],
      "textures": [
        "grass-path.png"
      ]
    },
    {
      "layer": 2,
      "points": [
        [
          24128,
          416
        ],
        [
          25056,
          480
        ],
        [
          25984,
          416
        ]
      ],
      "textures": [
        "grass-path.png"
      ]
    },
    {
      "layer": 2,
      "points": [
        [
          25984,
          416
        ],
        [
          26912,
          384
        ],
        [
          27840,
          416
        ]
      ],
      "textures": [
        "grass-path.png"
      ]
    },
    {
      "layer": 2,
      "points": [
        [
          27840,
          416
        ],
        [
          28768,
          320
        ],
        [
          29696,
          416
        ]
      ],
      "textures": [
        "grass-path.png"
      ]
    },
    {
      "layer": 2,
      "points": [
        [
          29696,
          416
        ],
        [
          30624,
          352
        ],
        [
          31552,
          416
        ]
      ],
      "textures": [
        "grass-path.png"
      ]
    },
    {
      "layer": 2,
      "points": [
        [
          31552,
          416
        ],
        [
          32480,
          480
        ],
        [
          33408,
          416
        ]
      ],
      "textures": [
        "grass-path.png"
      ]
    },
    {
      "layer": 2,
      "points": [
        [
          33408,
          416
        ],
        [
          34336,
          320
        ],
        [
          35264,
          416
        ]
      ],
      "textures": [
        "grass-path.png"
      ]
    },
    {
      "layer": 2,
      "points": [
        [
          35264,
          416
        ],
        [
          37120,
          416
        ]
      ],
      "textures": [
        "grass-path.png"
      ]
    }
  ],
  "obstacles": [
    {
      "layer": 1,
      "x": 2784,
      "y": 298,
      "rotation": 0,
      "scale": -0.504111842105264,
      "key": "rocks"
    },
    {
      "layer": 2,
      "x": 5290.006858045493,
      "y": 458.09563712990024,
      "rotation": -0.0823981379777538,
      "scale": -0.542763157894736,
      "key": "rocks"
    },
    {
      "layer": 0,
      "x": 8352,
      "y": 310,
      "rotation": 0,
      "scale": 0.469572368421052,
      "key": "rocks"
    },
    {
      "layer": 1,
      "x": 11384,
      "y": 368,
      "rotation": 0,
      "scale": 0.5333333333333333,
      "key": "rocks"
    },
    {
      "layer": 1,
      "x": 15498.00685804549,
      "y": 310.09563712990126,
      "rotation": -0.082398137977987,
      "scale": -0.49547697368421,
      "key": "rocks"
    },
    {
      "layer": 2,
      "x": 20416,
      "y": 436,
      "rotation": 0,
      "scale": 0.558388157894736,
      "key": "rocks"
    },
    {
      "layer": 0,
      "x": 23664,
      "y": 310,
      "rotation": 0,
      "scale": 0.36842105263158,
      "key": "rocks"
    },
    {
      "layer": 2,
      "x": 27375.999973333437,
      "y": 430.00045269855667,
      "rotation": 0.058727735420280175,
      "scale": -0.59046052631579,
      "key": "rocks"
    },
    {
      "layer": 1,
      "x": 30253.826145493145,
      "y": 318.9636012212829,
      "rotation": -0.10659830357313962,
      "scale": 0.433388157894736,
      "key": "rocks"
    },
    {
      "layer": 0,
      "x": 33920.7208793627,
      "y": 262.85170048654953,
      "rotation": -0.1778190546874284,
      "scale": -0.339638157894736,
      "key": "rocks"
    },
    {
      "layer": 2,
      "x": 3989.992751499084,
      "y": 448.0958312229682,
      "rotation": 0.08240593579148688,
      "scale": 0.523026315789474,
      "key": "lavapit"
    },
    {
      "layer": 0,
      "x": 7053.956306065255,
      "y": 304.5244931288766,
      "rotation": 0.0534480273003113,
      "scale": 0.34046052631579,
      "key": "lavapit"
    },
    {
      "layer": 1,
      "x": 9837.956306065253,
      "y": 382.52449312885466,
      "rotation": 0.05344802730596158,
      "scale": 0.413240131578948,
      "key": "lavapit"
    },
    {
      "layer": 2,
      "x": 12528,
      "y": 446,
      "rotation": 0,
      "scale": -0.643092105263158,
      "key": "lavapit"
    },
    {
      "layer": 0,
      "x": 17632,
      "y": 345,
      "rotation": 0,
      "scale": 0.372121710526316,
      "key": "lavapit"
    },
    {
      "layer": 2,
      "x": 21344,
      "y": 308,
      "rotation": 0,
      "scale": -0.558388157894736,
      "key": "lavapit"
    },
    {
      "layer": 1,
      "x": 24498.17376045189,
      "y": 382.9647779141699,
      "rotation": 0.10660662990809838,
      "scale": 0.392269736842106,
      "key": "lavapit"
    },
    {
      "layer": 1,
      "x": 28352.7208793627,
      "y": 304.85170048655016,
      "rotation": -0.17781905468742557,
      "scale": -0.344572368421052,
      "key": "lavapit"
    },
    {
      "layer": 2,
      "x": 33408,
      "y": 426,
      "rotation": 0,
      "scale": 0.4,
      "key": "lavapit"
    },
    {
      "layer": 0,
      "x": 4640,
      "y": 364,
      "rotation": 0,
      "scale": 0.387746710526316,
      "key": "oldgyro"
    },
    {
      "layer": 2,
      "x": 7424,
      "y": 446,
      "rotation": 0,
      "scale": -0.746299342105264,
      "key": "oldgyro"
    },
    {
      "layer": 1,
      "x": 10393.987120150323,
      "y": 391.1238757215332,
      "rotation": -0.027641687505528156,
      "scale": 0.4,
      "key": "oldgyro"
    },
    {
      "layer": 0,
      "x": 12064,
      "y": 310,
      "rotation": 0,
      "scale": -0.378700657894736,
      "key": "oldgyro"
    },
    {
      "layer": 2,
      "x": 13920,
      "y": 382,
      "rotation": -0.0826734908839419,
      "scale": -0.592105263157894,
      "key": "oldgyro"
    },
    {
      "layer": 0,
      "x": 16889.987122418654,
      "y": 302.876012265646,
      "rotation": 0.027670281323465044,
      "scale": 0.36266447368421,
      "key": "oldgyro"
    },
    {
      "layer": 2,
      "x": 19765.998137957526,
      "y": 441.9512370490279,
      "rotation": -0.04126810866112272,
      "scale": 0.54358552631579,
      "key": "oldgyro"
    },
    {
      "layer": 1,
      "x": 23200,
      "y": 366,
      "rotation": 0,
      "scale": -0.451480263157894,
      "key": "oldgyro"
    },
    {
      "layer": 1,
      "x": 26541.956306065254,
      "y": 340.47550687114517,
      "rotation": -0.0534480273059664,
      "scale": 0.442845394736842,
      "key": "oldgyro"
    },
    {
      "layer": 2,
      "x": 32202.006858045483,
      "y": 477.9043628700987,
      "rotation": 0.08239813797798812,
      "scale": 0.525904605263158,
      "key": "oldgyro"
    },
    {
      "layer": 2,
      "x": 35728,
      "y": 436,
      "rotation": 0,
      "scale": -0.563733552631578,
      "key": "oldgyro"
    },
    {
      "layer": 1,
      "x": 6125.956306065256,
      "y": 340.4755068711452,
      "rotation": -0.05344802730596231,
      "scale": 0.659950657894738,
      "key": "dinobones"
    },
    {
      "layer": 2,
      "x": 9280,
      "y": 446,
      "rotation": 0,
      "scale": 0.921875,
      "key": "dinobones"
    },
    {
      "layer": 2,
      "x": 11042.006873848282,
      "y": 456.95658241540553,
      "rotation": -0.01546296928294884,
      "scale": -0.892269736842106,
      "key": "dinobones"
    },
    {
      "layer": 1,
      "x": 13177.948653498142,
      "y": 366.250921968229,
      "rotation": -0.05529012084337009,
      "scale": -0.587993421052632,
      "key": "dinobones"
    },
    {
      "layer": 2,
      "x": 14848,
      "y": 446,
      "rotation": 0,
      "scale": 0.913240131578948,
      "key": "dinobones"
    },
    {
      "layer": 2,
      "x": 16981.9981380382,
      "y": 452.0487605704418,
      "rotation": 0.04126871643681368,
      "scale": -0.803042763157894,
      "key": "dinobones"
    },
    {
      "layer": 1,
      "x": 18560,
      "y": 372,
      "rotation": 0,
      "scale": 0.678865131578948,
      "key": "dinobones"
    },
    {
      "layer": 0,
      "x": 20876.119479682486,
      "y": 246.9703412024853,
      "rotation": -0.24503568952279764,
      "scale": -0.590871710526316,
      "key": "dinobones"
    },
    {
      "layer": 1,
      "x": 22272,
      "y": 372,
      "rotation": 0,
      "scale": 0.699424342105264,
      "key": "dinobones"
    },
    {
      "layer": 2,
      "x": 25613.82614549314,
      "y": 456.96360122124,
      "rotation": -0.10659830356202278,
      "scale": 0.8359375,
      "key": "dinobones"
    },
    {
      "layer": 0,
      "x": 31737.94865349814,
      "y": 315.749078031771,
      "rotation": 0.055290120843370254,
      "scale": 0.5,
      "key": "dinobones"
    },
    {
      "layer": 0,
      "x": 0,
      "y": 46,
      "rotation": 0,
      "scale": 1,
      "key": "tree2"
    },
    {
      "layer": 0,
      "x": 138,
      "y": 56,
      "rotation": 0,
      "scale": 1,
      "key": "tree5"
    },
    {
      "layer": 0,
      "x": 91,
      "y": 93,
      "rotation": 0,
      "scale": 1,
      "key": "distantfern1"
    },
    {
      "layer": 0,
      "x": 116,
      "y": 94,
      "rotation": 0,
      "scale": 0.716282894736842,
      "key": "distantfern2"
    },
    {
      "layer": 0,
      "x": 222,
      "y": 61,
      "rotation": 0,
      "scale": 1,
      "key": "tree3"
    },
    {
      "layer": 0,
      "x": 740,
      "y": 156,
      "rotation": 0,
      "scale": 1,
      "key": "tree2"
    },
    {
      "layer": 0,
      "x": 595,
      "y": 107,
      "rotation": 0,
      "scale": -0.788651315789474,
      "key": "tree1"
    },
    {
      "layer": 0,
      "x": 694,
      "y": 117,
      "rotation": "-0.123149054129205",
      "scale": 1,
      "key": "tree6"
    },
    {
      "layer": 0,
      "x": 1051,
      "y": 199,
      "rotation": 0,
      "scale": 1,
      "key": "tree4"
    },
    {
      "layer": 0,
      "x": 989,
      "y": 188,
      "rotation": 0,
      "scale": 1,
      "key": "tree7"
    },
    {
      "layer": 0,
      "x": 1144,
      "y": 194,
      "rotation": 0,
      "scale": 1,
      "key": "tree2"
    },
    {
      "layer": 0,
      "x": 1634,
      "y": 235,
      "rotation": 0,
      "scale": -0.924753289473684,
      "key": "tree5"
    },
    {
      "layer": 0,
      "x": 1518,
      "y": 263,
      "rotation": 0,
      "scale": -0.917763157894736,
      "key": "tree6"
    },
    {
      "layer": 0,
      "x": 1595,
      "y": 216,
      "rotation": 0,
      "scale": 1,
      "key": "tree6"
    },
    {
      "layer": 0,
      "x": 2230,
      "y": 251,
      "rotation": 0,
      "scale": 1,
      "key": "distantfern2"
    },
    {
      "layer": 0,
      "x": 2316,
      "y": 248,
      "rotation": 0,
      "scale": 1,
      "key": "distantfern1"
    },
    {
      "layer": 0,
      "x": 2290,
      "y": 215,
      "rotation": 0,
      "scale": 1,
      "key": "tree3"
    },
    {
      "layer": 0,
      "x": 2250,
      "y": 201,
      "rotation": "-0.15931870639093",
      "scale": -0.786595394736842,
      "key": "tree1"
    },
    {
      "layer": 0,
      "x": 2137,
      "y": 234,
      "rotation": 0,
      "scale": 1,
      "key": "tree2"
    },
    {
      "layer": 0,
      "x": 1727,
      "y": 255,
      "rotation": 0,
      "scale": 1,
      "key": "tree3"
    },
    {
      "layer": 0,
      "x": 2702,
      "y": 176,
      "rotation": "0.157596341997515",
      "scale": -0.872121710526316,
      "key": "tree6"
    },
    {
      "layer": 0,
      "x": 392,
      "y": 83,
      "rotation": 0,
      "scale": 1,
      "key": "tree8"
    },
    {
      "layer": 0,
      "x": 2538,
      "y": 201,
      "rotation": 0,
      "scale": 1,
      "key": "tree5"
    },
    {
      "layer": 0,
      "x": 3239,
      "y": 228,
      "rotation": 0,
      "scale": 1,
      "key": "tree3"
    },
    {
      "layer": 0,
      "x": 3272,
      "y": 214,
      "rotation": "0.436619373730818",
      "scale": -1.028371710526316,
      "key": "tree3"
    },
    {
      "layer": 0,
      "x": 3290,
      "y": 266,
      "rotation": 0,
      "scale": 0.778782894736842,
      "key": "distantfern1"
    },
    {
      "layer": 0,
      "x": 3196,
      "y": 192,
      "rotation": 0,
      "scale": -0.833881578947368,
      "key": "tree6"
    },
    {
      "layer": 0,
      "x": 2923,
      "y": 222,
      "rotation": 0,
      "scale": 1,
      "key": "distantfern2"
    },
    {
      "layer": 0,
      "x": 3043,
      "y": 214,
      "rotation": 0,
      "scale": -1.033717105263158,
      "key": "distantfern2"
    },
    {
      "layer": 0,
      "x": 2978,
      "y": 168,
      "rotation": 0,
      "scale": 1,
      "key": "tree2"
    },
    {
      "layer": 0,
      "x": 2989,
      "y": 254,
      "rotation": 0,
      "scale": 1,
      "key": "distantfern1"
    },
    {
      "layer": 0,
      "x": 3487,
      "y": 260,
      "rotation": 0,
      "scale": 1,
      "key": "tree8"
    },
    {
      "layer": 0,
      "x": 4237,
      "y": 315,
      "rotation": 0,
      "scale": -1.125411184210526,
      "key": "tree8"
    },
    {
      "layer": 0,
      "x": 3796,
      "y": 256,
      "rotation": 0,
      "scale": 1,
      "key": "tree1"
    },
    {
      "layer": 0,
      "x": 294,
      "y": 105,
      "rotation": 0,
      "scale": 1,
      "key": "tree5"
    },
    {
      "layer": 0,
      "x": 506,
      "y": 88,
      "rotation": 0,
      "scale": 1,
      "key": "tree2"
    },
    {
      "layer": 0,
      "x": 818,
      "y": 177,
      "rotation": 0,
      "scale": 1,
      "key": "tree7"
    },
    {
      "layer": 0,
      "x": 567,
      "y": 174,
      "rotation": 0,
      "scale": 1,
      "key": "tree8"
    },
    {
      "layer": 0,
      "x": 322,
      "y": 107,
      "rotation": 0,
      "scale": 1,
      "key": "tree6"
    },
    {
      "layer": 0,
      "x": 893,
      "y": 186,
      "rotation": 0,
      "scale": 1,
      "key": "tree5"
    },
    {
      "layer": 0,
      "x": 1076,
      "y": 196,
      "rotation": 0,
      "scale": 1,
      "key": "tree3"
    },
    {
      "layer": 0,
      "x": 1226,
      "y": 217,
      "rotation": 0,
      "scale": 1,
      "key": "tree4"
    },
    {
      "layer": 0,
      "x": 1344,
      "y": 195,
      "rotation": 0,
      "scale": 1,
      "key": "tree2"
    },
    {
      "layer": 0,
      "x": 1455,
      "y": 187,
      "rotation": 0,
      "scale": 1,
      "key": "tree1"
    },
    {
      "layer": 0,
      "x": 869,
      "y": 184,
      "rotation": 0,
      "scale": 1,
      "key": "distantfern1"
    },
    {
      "layer": 0,
      "x": 466,
      "y": 115,
      "rotation": 0,
      "scale": 1,
      "key": "distantfern2"
    },
    {
      "layer": 0,
      "x": 352,
      "y": 72,
      "rotation": 0,
      "scale": -1.5,
      "key": "tree8"
    },
    {
      "layer": 0,
      "x": 4825,
      "y": 310,
      "rotation": 0,
      "scale": 1,
      "key": "tree3"
    },
    {
      "layer": 0,
      "x": 1916,
      "y": 256,
      "rotation": 0,
      "scale": 1,
      "key": "tree4"
    },
    {
      "layer": 0,
      "x": 4768,
      "y": 319,
      "rotation": 0,
      "scale": -1.042763157894736,
      "key": "tree6"
    },
    {
      "layer": 2,
      "x": 2133.992751499084,
      "y": 435.9041687770318,
      "rotation": -0.08240593579148688,
      "scale": 0.8333333333333333,
      "key": "dinobones"
    },
    {
      "layer": 0,
      "x": 5400,
      "y": 245,
      "rotation": 0,
      "scale": 1,
      "key": "tree6"
    },
    {
      "layer": 0,
      "x": 5426,
      "y": 283,
      "rotation": 0,
      "scale": 1,
      "key": "tree4"
    },
    {
      "layer": 0,
      "x": 5161,
      "y": 257,
      "rotation": 0,
      "scale": 1,
      "key": "tree5"
    },
    {
      "layer": 0,
      "x": 5285,
      "y": 257,
      "rotation": 0,
      "scale": 1,
      "key": "tree8"
    },
    {
      "layer": 0,
      "x": 5557,
      "y": 251,
      "rotation": 0,
      "scale": 1,
      "key": "tree2"
    },
    {
      "layer": 0,
      "x": 5679,
      "y": 247,
      "rotation": 0,
      "scale": -1.096628289473684,
      "key": "tree3"
    },
    {
      "layer": 0,
      "x": 5790,
      "y": 228,
      "rotation": 0,
      "scale": 1,
      "key": "tree1"
    },
    {
      "layer": 0,
      "x": 6003,
      "y": 254,
      "rotation": 0,
      "scale": 1,
      "key": "distantfern2"
    },
    {
      "layer": 0,
      "x": 6099,
      "y": 236,
      "rotation": 0,
      "scale": -0.890213815789474,
      "key": "tree5"
    },
    {
      "layer": 0,
      "x": 6116,
      "y": 264,
      "rotation": 0,
      "scale": 0.830180921052632,
      "key": "distantfern1"
    },
    {
      "layer": 0,
      "x": 6226,
      "y": 204,
      "rotation": 0,
      "scale": 1,
      "key": "tree1"
    },
    {
      "layer": 0,
      "x": 6316,
      "y": 218,
      "rotation": 0,
      "scale": 1,
      "key": "tree4"
    },
    {
      "layer": 0,
      "x": 5885,
      "y": 240,
      "rotation": 0,
      "scale": -1.102796052631578,
      "key": "tree4"
    },
    {
      "layer": 0,
      "x": 6424,
      "y": 248,
      "rotation": 0,
      "scale": 1,
      "key": "tree6"
    },
    {
      "layer": 0,
      "x": 6508,
      "y": 229,
      "rotation": 0,
      "scale": 1,
      "key": "tree7"
    },
    {
      "layer": 0,
      "x": 6621,
      "y": 228,
      "rotation": 0,
      "scale": 1,
      "key": "tree8"
    },
    {
      "layer": 0,
      "x": 6760,
      "y": 209,
      "rotation": 0,
      "scale": 1,
      "key": "tree2"
    },
    {
      "layer": 0,
      "x": 6941,
      "y": 226,
      "rotation": 0,
      "scale": 1,
      "key": "tree3"
    },
    {
      "layer": 0,
      "x": 7320,
      "y": 257,
      "rotation": 0,
      "scale": 1,
      "key": "tree2"
    },
    {
      "layer": 0,
      "x": 7691,
      "y": 250,
      "rotation": 0,
      "scale": 1,
      "key": "tree5"
    },
    {
      "layer": 0,
      "x": 7667,
      "y": 268,
      "rotation": 0,
      "scale": 0.698190789473684,
      "key": "distantfern1"
    },
    {
      "layer": 0,
      "x": 7731,
      "y": 270,
      "rotation": 0,
      "scale": 0.735197368421052,
      "key": "distantfern2"
    },
    {
      "layer": 0,
      "x": 7791,
      "y": 291,
      "rotation": -0.210989638193393,
      "scale": -0.916529605263158,
      "key": "distantfern1"
    },
    {
      "layer": 0,
      "x": 7794,
      "y": 281,
      "rotation": 0,
      "scale": 1,
      "key": "tree6"
    },
    {
      "layer": 0,
      "x": 1494,
      "y": 240,
      "rotation": 0,
      "scale": 1,
      "key": "distantfern1"
    },
    {
      "layer": 0,
      "x": 4500,
      "y": 338,
      "rotation": 0,
      "scale": 0.804276315789474,
      "key": "distantfern2"
    },
    {
      "layer": 0,
      "x": 5623,
      "y": 288,
      "rotation": 0,
      "scale": 1,
      "key": "distantfern2"
    },
    {
      "layer": 0,
      "x": 6854,
      "y": 273,
      "rotation": 0,
      "scale": 1,
      "key": "distantfern2"
    },
    {
      "layer": 0,
      "x": 8023,
      "y": 226,
      "rotation": 0,
      "scale": -1.071957236842106,
      "key": "tree1"
    },
    {
      "layer": 0,
      "x": 8204,
      "y": 252,
      "rotation": 0,
      "scale": -0.9140625,
      "key": "tree3"
    },
    {
      "layer": 0,
      "x": 8386,
      "y": 252,
      "rotation": 0,
      "scale": -1.170230263157894,
      "key": "tree5"
    },
    {
      "layer": 0,
      "x": 8426,
      "y": 283,
      "rotation": 0,
      "scale": 0.627878289473684,
      "key": "distantfern1"
    },
    {
      "layer": 0,
      "x": 8864,
      "y": 255,
      "rotation": 0,
      "scale": 1,
      "key": "tree3"
    },
    {
      "layer": 0,
      "x": 8843,
      "y": 251,
      "rotation": -0.330693963535768,
      "scale": 1,
      "key": "tree4"
    },
    {
      "layer": 0,
      "x": 13074,
      "y": 249,
      "rotation": 0,
      "scale": 1,
      "key": "tree5"
    },
    {
      "layer": 0,
      "x": 13461,
      "y": 228,
      "rotation": 0,
      "scale": 1,
      "key": "tree7"
    },
    {
      "layer": 0,
      "x": 13926,
      "y": 190,
      "rotation": 0,
      "scale": 1,
      "key": "tree8"
    },
    {
      "layer": 0,
      "x": 13995,
      "y": 203,
      "rotation": 0,
      "scale": 1,
      "key": "tree6"
    },
    {
      "layer": 0,
      "x": 14429,
      "y": 237,
      "rotation": 0,
      "scale": 1,
      "key": "distantfern2"
    },
    {
      "layer": 0,
      "x": 14526,
      "y": 248,
      "rotation": 0,
      "scale": 0.617598684210526,
      "key": "distantfern1"
    },
    {
      "layer": 0,
      "x": 14556,
      "y": 235,
      "rotation": 0,
      "scale": 1,
      "key": "tree8"
    },
    {
      "layer": 0,
      "x": 14334,
      "y": 205,
      "rotation": 0,
      "scale": 1,
      "key": "tree7"
    },
    {
      "layer": 0,
      "x": 14645,
      "y": 255,
      "rotation": 0,
      "scale": 1,
      "key": "tree4"
    },
    {
      "layer": 0,
      "x": 14821,
      "y": 238,
      "rotation": 0,
      "scale": 1,
      "key": "tree2"
    },
    {
      "layer": 0,
      "x": 15049,
      "y": 219,
      "rotation": 0,
      "scale": -0.959703947368422,
      "key": "tree1"
    },
    {
      "layer": 0,
      "x": 15233,
      "y": 231,
      "rotation": 0,
      "scale": 1,
      "key": "tree7"
    },
    {
      "layer": 0,
      "x": 15402,
      "y": 210,
      "rotation": -0.126593782916036,
      "scale": 1,
      "key": "tree5"
    },
    {
      "layer": 0,
      "x": 15346,
      "y": 249,
      "rotation": 0,
      "scale": 0.787006578947368,
      "key": "distantfern1"
    },
    {
      "layer": 0,
      "x": 15564,
      "y": 186,
      "rotation": 0,
      "scale": 1,
      "key": "tree3"
    },
    {
      "layer": 0,
      "x": 15682,
      "y": 189,
      "rotation": 0.106786592391759,
      "scale": -0.817434210526316,
      "key": "tree6"
    },
    {
      "layer": 0,
      "x": 15944,
      "y": 211,
      "rotation": 0.121426689735789,
      "scale": 1,
      "key": "tree8"
    },
    {
      "layer": 0,
      "x": 16103,
      "y": 199,
      "rotation": 0,
      "scale": 1,
      "key": "tree2"
    },
    {
      "layer": 0,
      "x": 16377,
      "y": 220,
      "rotation": 0,
      "scale": 1,
      "key": "tree1"
    },
    {
      "layer": 0,
      "x": 16238,
      "y": 237,
      "rotation": 0,
      "scale": 1,
      "key": "distantfern2"
    },
    {
      "layer": 0,
      "x": 17187,
      "y": 250,
      "rotation": 0,
      "scale": 1,
      "key": "tree2"
    },
    {
      "layer": 0,
      "x": 16512,
      "y": 258,
      "rotation": 0,
      "scale": 1,
      "key": "tree4"
    },
    {
      "layer": 0,
      "x": 16666,
      "y": 246,
      "rotation": 0,
      "scale": -1.043996710526316,
      "key": "tree3"
    },
    {
      "layer": 0,
      "x": 16901,
      "y": 247,
      "rotation": 0,
      "scale": 1,
      "key": "tree7"
    },
    {
      "layer": 0,
      "x": 17244,
      "y": 286,
      "rotation": 0,
      "scale": 1,
      "key": "tree7"
    },
    {
      "layer": 0,
      "x": 17342,
      "y": 295,
      "rotation": 0,
      "scale": 1,
      "key": "distantfern2"
    },
    {
      "layer": 0,
      "x": 17448,
      "y": 265,
      "rotation": 0,
      "scale": 1,
      "key": "tree6"
    },
    {
      "layer": 0,
      "x": 17481,
      "y": 277,
      "rotation": -0.12142668973579,
      "scale": 1,
      "key": "tree7"
    },
    {
      "layer": 0,
      "x": 17593,
      "y": 263,
      "rotation": 0,
      "scale": 1,
      "key": "tree1"
    },
    {
      "layer": 0,
      "x": 17715,
      "y": 280,
      "rotation": 0,
      "scale": 1,
      "key": "tree5"
    },
    {
      "layer": 0,
      "x": 17918,
      "y": 270,
      "rotation": 0,
      "scale": 1,
      "key": "tree3"
    },
    {
      "layer": 0,
      "x": 18162,
      "y": 271,
      "rotation": -0.316053866191736,
      "scale": 1,
      "key": "tree6"
    },
    {
      "layer": 0,
      "x": 18163,
      "y": 285,
      "rotation": 0,
      "scale": 1,
      "key": "distantfern1"
    },
    {
      "layer": 0,
      "x": 18177,
      "y": 260,
      "rotation": 0,
      "scale": 1,
      "key": "tree4"
    },
    {
      "layer": 0,
      "x": 18488,
      "y": 263,
      "rotation": -0.103341863604928,
      "scale": -0.970394736842106,
      "key": "tree5"
    },
    {
      "layer": 0,
      "x": 18663,
      "y": 244,
      "rotation": 0,
      "scale": 1,
      "key": "tree1"
    },
    {
      "layer": 0,
      "x": 18842,
      "y": 245,
      "rotation": 0,
      "scale": 1,
      "key": "tree2"
    },
    {
      "layer": 0,
      "x": 19181,
      "y": 288,
      "rotation": 0,
      "scale": 1,
      "key": "tree4"
    },
    {
      "layer": 0,
      "x": 19173,
      "y": 288,
      "rotation": 0,
      "scale": 1,
      "key": "tree6"
    },
    {
      "layer": 0,
      "x": 19254,
      "y": 272,
      "rotation": 0,
      "scale": 1,
      "key": "tree3"
    },
    {
      "layer": 0,
      "x": 19204,
      "y": 296,
      "rotation": 0,
      "scale": -0.771792763157894,
      "key": "distantfern1"
    },
    {
      "layer": 0,
      "x": 19575,
      "y": 266,
      "rotation": 0,
      "scale": -0.961348684210526,
      "key": "tree2"
    },
    {
      "layer": 0,
      "x": 19721,
      "y": 247,
      "rotation": 0,
      "scale": 1,
      "key": "tree1"
    },
    {
      "layer": 0,
      "x": 19903,
      "y": 288,
      "rotation": 0,
      "scale": 1,
      "key": "distantfern1"
    },
    {
      "layer": 0,
      "x": 19978,
      "y": 276,
      "rotation": 0,
      "scale": 1,
      "key": "distantfern2"
    },
    {
      "layer": 0,
      "x": 19915,
      "y": 257,
      "rotation": 0,
      "scale": 1.169819078947368,
      "key": "tree8"
    },
    {
      "layer": 0,
      "x": 20134,
      "y": 259,
      "rotation": 0,
      "scale": 1,
      "key": "tree6"
    },
    {
      "layer": 0,
      "x": 20200,
      "y": 268,
      "rotation": 0,
      "scale": 1,
      "key": "tree7"
    },
    {
      "layer": 0,
      "x": 20383,
      "y": 243,
      "rotation": 0,
      "scale": 1,
      "key": "tree5"
    },
    {
      "layer": 0,
      "x": 20317,
      "y": 268,
      "rotation": 0,
      "scale": 1,
      "key": "distantfern2"
    },
    {
      "layer": 0,
      "x": 20675,
      "y": 206,
      "rotation": 0,
      "scale": 1,
      "key": "tree1"
    },
    {
      "layer": 0,
      "x": 20981,
      "y": 151,
      "rotation": 0,
      "scale": 1,
      "key": "tree7"
    },
    {
      "layer": 0,
      "x": 21043,
      "y": 147,
      "rotation": 0,
      "scale": 1,
      "key": "tree8"
    },
    {
      "layer": 0,
      "x": 20840,
      "y": 231,
      "rotation": 0,
      "scale": -0.90625,
      "key": "tree6"
    },
    {
      "layer": 0,
      "x": 21198,
      "y": 131,
      "rotation": 0,
      "scale": 1,
      "key": "tree3"
    },
    {
      "layer": 0,
      "x": 21430,
      "y": 131,
      "rotation": 0,
      "scale": 1,
      "key": "tree2"
    },
    {
      "layer": 0,
      "x": 21557,
      "y": 148,
      "rotation": 0,
      "scale": 1,
      "key": "tree7"
    },
    {
      "layer": 0,
      "x": 21649,
      "y": 154,
      "rotation": 0,
      "scale": 1,
      "key": "tree8"
    },
    {
      "layer": 0,
      "x": 21924,
      "y": 231,
      "rotation": 0,
      "scale": -1.091694078947368,
      "key": "tree5"
    },
    {
      "layer": 0,
      "x": 22084,
      "y": 272,
      "rotation": 0,
      "scale": 1,
      "key": "distantfern2"
    },
    {
      "layer": 0,
      "x": 25762,
      "y": 278,
      "rotation": 0,
      "scale": 1,
      "key": "tree5"
    },
    {
      "layer": 0,
      "x": 26109,
      "y": 256,
      "rotation": 0,
      "scale": 1,
      "key": "tree3"
    },
    {
      "layer": 0,
      "x": 26450,
      "y": 241,
      "rotation": 0,
      "scale": 1,
      "key": "tree4"
    },
    {
      "layer": 0,
      "x": 26523,
      "y": 226,
      "rotation": 0,
      "scale": 1,
      "key": "tree8"
    },
    {
      "layer": 0,
      "x": 26800,
      "y": 220,
      "rotation": 0,
      "scale": 1,
      "key": "tree6"
    },
    {
      "layer": 0,
      "x": 26936,
      "y": 206,
      "rotation": 0,
      "scale": 1,
      "key": "tree1"
    },
    {
      "layer": 0,
      "x": 27082,
      "y": 221,
      "rotation": 0,
      "scale": 1,
      "key": "tree2"
    },
    {
      "layer": 0,
      "x": 27212,
      "y": 224,
      "rotation": 0,
      "scale": 1,
      "key": "tree7"
    },
    {
      "layer": 0,
      "x": 27331,
      "y": 225,
      "rotation": 0,
      "scale": 1,
      "key": "tree2"
    },
    {
      "layer": 0,
      "x": 27458,
      "y": 248,
      "rotation": 0,
      "scale": 1,
      "key": "tree4"
    },
    {
      "layer": 0,
      "x": 27638,
      "y": 244,
      "rotation": 0,
      "scale": 1,
      "key": "tree2"
    },
    {
      "layer": 0,
      "x": 27712,
      "y": 251,
      "rotation": 0,
      "scale": 1,
      "key": "tree5"
    },
    {
      "layer": 0,
      "x": 27847,
      "y": 243,
      "rotation": 0,
      "scale": 1,
      "key": "tree6"
    },
    {
      "layer": 0,
      "x": 27702,
      "y": 271,
      "rotation": 0,
      "scale": 1,
      "key": "distantfern2"
    },
    {
      "layer": 0,
      "x": 27643,
      "y": 251,
      "rotation": 0,
      "scale": 1,
      "key": "tree4"
    },
    {
      "layer": 0,
      "x": 28050,
      "y": 248,
      "rotation": 0,
      "scale": 1,
      "key": "tree7"
    },
    {
      "layer": 0,
      "x": 28216,
      "y": 204,
      "rotation": -0.186015354488869,
      "scale": 1,
      "key": "tree2"
    },
    {
      "layer": 0,
      "x": 28398,
      "y": 187,
      "rotation": 0,
      "scale": 1,
      "key": "tree7"
    },
    {
      "layer": 0,
      "x": 28492,
      "y": 168,
      "rotation": 0,
      "scale": 1,
      "key": "tree8"
    },
    {
      "layer": 0,
      "x": 28620,
      "y": 157,
      "rotation": 0,
      "scale": 1,
      "key": "tree3"
    },
    {
      "layer": 0,
      "x": 28678,
      "y": 151,
      "rotation": 0,
      "scale": 1,
      "key": "tree2"
    },
    {
      "layer": 0,
      "x": 28937,
      "y": 159,
      "rotation": 0,
      "scale": 1,
      "key": "tree5"
    },
    {
      "layer": 0,
      "x": 29067,
      "y": 177,
      "rotation": 0,
      "scale": 1,
      "key": "tree6"
    },
    {
      "layer": 0,
      "x": 29107,
      "y": 181,
      "rotation": 0,
      "scale": 1,
      "key": "tree7"
    },
    {
      "layer": 0,
      "x": 29760,
      "y": 247,
      "rotation": 0,
      "scale": 1,
      "key": "tree2"
    },
    {
      "layer": 0,
      "x": 29894,
      "y": 228,
      "rotation": 0,
      "scale": 1,
      "key": "tree1"
    },
    {
      "layer": 0,
      "x": 29934,
      "y": 253,
      "rotation": 0,
      "scale": 1,
      "key": "tree4"
    },
    {
      "layer": 0,
      "x": 29668,
      "y": 263,
      "rotation": 0,
      "scale": 1,
      "key": "tree4"
    },
    {
      "layer": 0,
      "x": 30024,
      "y": 236,
      "rotation": 0,
      "scale": 1,
      "key": "tree6"
    },
    {
      "layer": 0,
      "x": 30382,
      "y": 195,
      "rotation": 0,
      "scale": 1,
      "key": "tree5"
    },
    {
      "layer": 0,
      "x": 30500,
      "y": 204,
      "rotation": 0,
      "scale": 0.691611842105264,
      "key": "distantfern2"
    },
    {
      "layer": 0,
      "x": 30536,
      "y": 177,
      "rotation": 0,
      "scale": 1,
      "key": "tree7"
    },
    {
      "layer": 0,
      "x": 30651,
      "y": 201,
      "rotation": 0,
      "scale": 1,
      "key": "tree4"
    },
    {
      "layer": 0,
      "x": 30746,
      "y": 205,
      "rotation": 0,
      "scale": 1,
      "key": "tree3"
    },
    {
      "layer": 0,
      "x": 30841,
      "y": 207,
      "rotation": 0,
      "scale": 1,
      "key": "tree7"
    },
    {
      "layer": 0,
      "x": 30934,
      "y": 209,
      "rotation": 0,
      "scale": -0.923930921052632,
      "key": "tree5"
    },
    {
      "layer": 0,
      "x": 31172,
      "y": 212,
      "rotation": 0,
      "scale": 1,
      "key": "tree2"
    },
    {
      "layer": 0,
      "x": 31295,
      "y": 252,
      "rotation": 0,
      "scale": 1,
      "key": "tree8"
    },
    {
      "layer": 0,
      "x": 31424,
      "y": 258,
      "rotation": 0,
      "scale": 1,
      "key": "tree7"
    },
    {
      "layer": 0,
      "x": 30982,
      "y": 229,
      "rotation": 0,
      "scale": 0.834703947368422,
      "key": "distantfern1"
    },
    {
      "layer": 0,
      "x": 31053,
      "y": 223,
      "rotation": 0,
      "scale": 1,
      "key": "distantfern2"
    },
    {
      "layer": 0,
      "x": 31659,
      "y": 243,
      "rotation": 0,
      "scale": 1,
      "key": "tree2"
    },
    {
      "layer": 0,
      "x": 31713,
      "y": 253,
      "rotation": 0,
      "scale": 1,
      "key": "tree3"
    },
    {
      "layer": 0,
      "x": 31765,
      "y": 268,
      "rotation": 0,
      "scale": 1,
      "key": "tree4"
    },
    {
      "layer": 0,
      "x": 32009,
      "y": 294,
      "rotation": 0,
      "scale": 1,
      "key": "tree6"
    },
    {
      "layer": 0,
      "x": 32030,
      "y": 301,
      "rotation": 0,
      "scale": 1,
      "key": "tree8"
    },
    {
      "layer": 0,
      "x": 32357,
      "y": 311,
      "rotation": 0,
      "scale": 1,
      "key": "tree7"
    },
    {
      "layer": 0,
      "x": 32454,
      "y": 314,
      "rotation": 0,
      "scale": 1,
      "key": "tree5"
    },
    {
      "layer": 0,
      "x": 32425,
      "y": 336,
      "rotation": 0,
      "scale": 0.76110197368421,
      "key": "distantfern2"
    },
    {
      "layer": 0,
      "x": 32765,
      "y": 286,
      "rotation": 0,
      "scale": 1,
      "key": "tree2"
    },
    {
      "layer": 0,
      "x": 32955,
      "y": 264,
      "rotation": 0,
      "scale": 1,
      "key": "tree1"
    },
    {
      "layer": 0,
      "x": 33149,
      "y": 269,
      "rotation": 0,
      "scale": 1,
      "key": "tree4"
    },
    {
      "layer": 0,
      "x": 33198,
      "y": 259,
      "rotation": 0,
      "scale": 1,
      "key": "tree3"
    },
    {
      "layer": 0,
      "x": 33310,
      "y": 238,
      "rotation": 0,
      "scale": 1,
      "key": "tree2"
    },
    {
      "layer": 0,
      "x": 33456,
      "y": 240,
      "rotation": 0,
      "scale": 1,
      "key": "tree1"
    },
    {
      "layer": 0,
      "x": 33062,
      "y": 294,
      "rotation": 0,
      "scale": -0.8515625,
      "key": "tree6"
    },
    {
      "layer": 0,
      "x": 33654,
      "y": 260,
      "rotation": 0,
      "scale": -1.295230263157894,
      "key": "tree5"
    },
    {
      "layer": 0,
      "x": 33900,
      "y": 175,
      "rotation": 0,
      "scale": 1,
      "key": "tree2"
    },
    {
      "layer": 0,
      "x": 34113,
      "y": 152,
      "rotation": 0,
      "scale": 1,
      "key": "tree1"
    },
    {
      "layer": 0,
      "x": 34346,
      "y": 149,
      "rotation": 0,
      "scale": 1,
      "key": "tree8"
    },
    {
      "layer": 0,
      "x": 34487,
      "y": 165,
      "rotation": 0,
      "scale": 1,
      "key": "tree7"
    },
    {
      "layer": 0,
      "x": 34822,
      "y": 220,
      "rotation": 0,
      "scale": 1,
      "key": "tree7"
    },
    {
      "layer": 0,
      "x": 34675,
      "y": 185,
      "rotation": 0,
      "scale": 1,
      "key": "tree3"
    },
    {
      "layer": 0,
      "x": 35063,
      "y": 256,
      "rotation": 0,
      "scale": 1,
      "key": "tree4"
    },
    {
      "layer": 0,
      "x": 35385,
      "y": 238,
      "rotation": 0,
      "scale": 1,
      "key": "tree1"
    },
    {
      "layer": 0,
      "x": 35803,
      "y": 245,
      "rotation": 0,
      "scale": 1,
      "key": "tree2"
    },
    {
      "layer": 0,
      "x": 4402,
      "y": 293,
      "rotation": 0,
      "scale": 1,
      "key": "tree8"
    },
    {
      "layer": 0,
      "x": 760,
      "y": 105,
      "rotation": 0,
      "scale": 1,
      "key": "tree4"
    },
    {
      "layer": 1,
      "x": 7888,
      "y": 368,
      "rotation": 0,
      "scale": 0.6666666666666666,
      "key": "powerup_boost"
    },
    {
      "layer": 0,
      "x": 12528,
      "y": 312,
      "rotation": 0,
      "scale": 0.5,
      "key": "powerup_boost"
    },
    {
      "layer": 1,
      "x": 14477.826145493133,
      "y": 347.0363987787599,
      "rotation": 0.10659830356201848,
      "scale": 0.6666666666666666,
      "key": "powerup_repair"
    },
    {
      "layer": 0,
      "x": 17261.956306065254,
      "y": 333.52449312885483,
      "rotation": 0.0534480273059664,
      "scale": 0.5,
      "key": "powerup_boost"
    },
    {
      "key": "ramp",
      "layer": 1,
      "x": 1219.0610554700372,
      "y": 331.29628825979063,
      "rotation": 0.052992027970056366,
      "scale": 0.6666666666666666
    },
    {
      "key": "tree2",
      "layer": 0,
      "x": 1936,
      "y": 252,
      "rotation": 0,
      "scale": 1
    },
    {
      "key": "powerup_boost",
      "layer": 1,
      "x": 3154.173760442354,
      "y": 324.96477801409986,
      "rotation": 0.10660660455604007,
      "scale": 0.6666666666666666
    },
    {
      "key": "ramp",
      "layer": 2,
      "x": 3712,
      "y": 448,
      "rotation": 0,
      "scale": 0.8333333333333333
    },
    {
      "key": "powerup_boost",
      "layer": 1,
      "x": 33618.92206839583,
      "y": 357.60738035081795,
      "rotation": -0.09288315536116466,
      "scale": 0.6666666666666666
    },
    {
      "key": "ramp",
      "layer": 1,
      "x": 33130.00685804551,
      "y": 380.09563712989984,
      "rotation": -0.08239813797774534,
      "scale": 0.6666666666666666
    },
    {
      "key": "tree6",
      "layer": 0,
      "x": 32657,
      "y": 317,
      "rotation": 0,
      "scale": 1
    },
    {
      "key": "oldgyro",
      "layer": 1,
      "x": 1401.9913426826809,
      "y": 336.51915827436585,
      "rotation": 0.024688720441468893,
      "scale": 0.5333333333333333
    },
    {
      "key": "oldgyro",
      "layer": 1,
      "x": 5568,
      "y": 368,
      "rotation": 0,
      "scale": 0.5333333333333333
    },
    {
      "key": "ramp",
      "layer": 1,
      "x": 11136,
      "y": 368,
      "rotation": 0,
      "scale": 0.6666666666666666
    },
    {
      "key": "powerup_repair",
      "layer": 0,
      "x": 5382.050984921898,
      "y": 317.7493697841523,
      "rotation": -0.05528252419633375,
      "scale": 0.5
    },
    {
      "key": "powerup_boost",
      "layer": 1,
      "x": 26912,
      "y": 336,
      "rotation": 0,
      "scale": 0.6666666666666666
    },
    {
      "key": "powerup_boost",
      "layer": 0,
      "x": 22736,
      "y": 312,
      "rotation": 0,
      "scale": 0.5
    },
    {
      "key": "powerup_repair",
      "layer": 2,
      "x": 28768,
      "y": 352,
      "rotation": 0,
      "scale": 0.8333333333333333
    },
    {
      "key": "powerup_boost",
      "layer": 2,
      "x": 31552,
      "y": 448,
      "rotation": 0,
      "scale": 0.8333333333333333
    }
  ]
}