<?xml version="1.0" encoding="utf-8"?>
<!-- Generator: Adobe Illustrator 22.0.1, SVG Export Plug-In . SVG Version: 6.00 Build 0)  -->
<svg version="1.1" id="Layer_1" xmlns="http://www.w3.org/2000/svg" xmlns:xlink="http://www.w3.org/1999/xlink" x="0px" y="0px"
	 viewBox="0 0 54 70" style="enable-background:new 0 0 54 70;" xml:space="preserve">
<style type="text/css">
	.st0{fill:#FFFFFF;}
</style>
<path id="boosticon.svg" class="st0" d="M15.8,0h12.6L12.6,35l15.8,35H15.8L0,35L15.8,0z M41.4,0H54L38.2,35L54,70H41.4L25.6,35
	L41.4,0z"/>
</svg>
