<svg xmlns="http://www.w3.org/2000/svg" width="54" height="70" viewBox="0 0 54 70">
  <defs>
    <style>
      .cls-1 {
        fill: #fff;
        fill-rule: evenodd;
      }
    </style>
  </defs>
  <path id="boosticon.svg" class="cls-1" d="M38.229,70H25.614l15.77-35L25.614,0H38.229L54,35ZM12.614,70H0l15.77-35L0,0H12.614l15.77,35Z"/>
</svg>
